<?xml version="1.0" standalone="no"?>
<!DOCTYPE svg PUBLIC "-//W3C//DTD SVG 1.1//EN" "http://www.w3.org/Graphics/SVG/1.1/DTD/svg11.dtd" >
<svg xmlns="http://www.w3.org/2000/svg" xmlns:xlink="http://www.w3.org/1999/xlink" version="1.1">
<metadata>
Created by FontForge 20161003 at Tue Sep 11 11:47:28 2018
 By www-data
Copyright (c) Mark Simonson, 2005. All rights reserved.
</metadata>
<defs>
<font id="ProximaNova-Regular" horiz-adv-x="1171" >
  <font-face 
    font-family="Proxima Nova Rg"
    font-weight="400"
    font-stretch="normal"
    units-per-em="2048"
    panose-1="2 0 5 6 3 0 0 2 0 4"
    ascent="1618"
    descent="-430"
    x-height="989"
    cap-height="1366"
    bbox="-201 -408 2152 1823"
    underline-thickness="40"
    underline-position="-271"
    unicode-range="U+0020-FB04"
  />
<missing-glyph horiz-adv-x="2048" 
 />
    <glyph glyph-name="uniFB01" unicode="fi" horiz-adv-x="1042" 
d="M33 854v135h164v76q0 151 78 236t208 85q95 0 152 -32l-39 -117q-41 23 -88 23q-77 0 -117.5 -50t-40.5 -145v-76h201v-135h-201v-854h-153v854h-164zM709 1233q0 43 30.5 73.5t73.5 30.5t72.5 -30.5t29.5 -73.5t-29.5 -73t-72.5 -30t-73.5 30t-30.5 73zM735 0v989h154
v-989h-154z" />
    <glyph glyph-name="uniFB02" unicode="fl" horiz-adv-x="1042" 
d="M33 854v135h164v76q0 151 78 236t208 85q95 0 152 -32l-39 -117q-41 23 -88 23q-77 0 -117.5 -50t-40.5 -145v-76h201v-135h-201v-854h-153v854h-164zM735 0v1366h154v-1366h-154z" />
    <glyph glyph-name="uniFB03" unicode="ffi" horiz-adv-x="1622" 
d="M33 854v135h164v76q0 151 77 236t209 85q129 0 209 -75l-63 -99q-55 48 -121 48q-77 0 -117.5 -50t-40.5 -145v-76h201v-135h-201v-854h-153v854h-164zM614 854v135h164v76q0 151 78.5 236t208.5 85q95 0 152 -32l-39 -117q-41 23 -88 23q-77 0 -117.5 -50t-40.5 -145
v-76h201v-135h-201v-854h-154v854h-164zM1288 1233q0 43 31 73.5t74 30.5t72.5 -30.5t29.5 -73.5t-29.5 -73t-72.5 -30t-74 30t-31 73zM1315 0v989h153v-989h-153z" />
    <glyph glyph-name="uniFB04" unicode="ffl" horiz-adv-x="1622" 
d="M33 854v135h164v76q0 151 77 236t209 85q129 0 209 -75l-63 -99q-55 48 -121 48q-77 0 -117.5 -50t-40.5 -145v-76h201v-135h-201v-854h-153v854h-164zM614 854v135h164v76q0 151 78.5 236t208.5 85q95 0 152 -32l-39 -117q-41 23 -88 23q-77 0 -117.5 -50t-40.5 -145
v-76h201v-135h-201v-854h-154v854h-164zM1315 0v1366h153v-1366h-153z" />
    <glyph glyph-name=".notdef" horiz-adv-x="2048" 
 />
    <glyph glyph-name="glyph1" horiz-adv-x="0" 
 />
    <glyph glyph-name="glyph2" horiz-adv-x="2048" 
 />
    <glyph glyph-name="space" unicode=" " horiz-adv-x="530" 
 />
    <glyph glyph-name="exclam" unicode="!" horiz-adv-x="471" 
d="M123 92q0 46 33.5 79.5t79.5 33.5t79 -33.5t33 -79.5q0 -45 -33.5 -78.5t-78.5 -33.5q-46 0 -79.5 34t-33.5 78zM139 1366h193l-33 -983h-127z" />
    <glyph glyph-name="quotedbl" unicode="&#x22;" horiz-adv-x="704" 
d="M111 1292q0 38 27 66t65 28q39 0 66.5 -27.5t27.5 -66.5q0 -13 -13.5 -125t-27.5 -217l-14 -106h-76q-55 419 -55 448zM408 1292q0 39 27.5 66.5t66.5 27.5q38 0 65 -28t27 -66q0 -13 -14 -125t-28 -217l-13 -106h-76q-55 419 -55 448z" />
    <glyph glyph-name="numbersign" unicode="#" horiz-adv-x="1210" 
d="M45 371l35 108h219l135 408h-221l33 106h225l123 373h127l-123 -373h225l123 373h125l-125 -373h219l-30 -106h-224l-137 -408h227l-32 -108h-232l-123 -371h-125l125 371h-227l-123 -371h-127l125 371h-217zM424 479h225l137 408h-225z" />
    <glyph glyph-name="dollar" unicode="$" horiz-adv-x="1214" 
d="M88 193l102 131q64 -75 157 -127.5t208 -65.5v498q-54 15 -90 26t-84.5 30t-80.5 38t-67 48t-55.5 62t-33.5 77.5t-13 97.5q0 157 118.5 260.5t305.5 117.5v187h125v-189q244 -20 405 -188l-102 -125q-121 133 -303 158v-447q54 -15 91.5 -27t86.5 -32t83 -41t69.5 -52
t57 -66t35 -83t13.5 -104q0 -72 -24.5 -137.5t-74 -122.5t-136.5 -94.5t-201 -45.5v-182h-125v182q-149 9 -268 66.5t-199 149.5zM307 1018q0 -41 18 -73t54.5 -56t77 -40.5t98.5 -33.5v418q-109 -8 -178.5 -67t-69.5 -148zM680 129q134 14 197 82.5t63 153.5
q0 48 -19.5 85.5t-58 64.5t-80.5 45t-102 36v-467z" />
    <glyph glyph-name="percent" unicode="%" horiz-adv-x="1499" 
d="M63 1047q0 147 92.5 243t237.5 96q146 0 238 -95.5t92 -243.5q0 -143 -92 -238.5t-238 -95.5q-145 0 -237.5 95.5t-92.5 238.5zM186 1047q0 -98 58.5 -164t148.5 -66q91 0 149 66t58 164q0 102 -57.5 168.5t-149.5 66.5q-90 0 -148.5 -66.5t-58.5 -168.5zM262 0l873 1366
h114l-874 -1366h-113zM776 311q0 144 92.5 241t237.5 97q144 0 236 -97t92 -241t-91.5 -240t-236.5 -96t-237.5 96t-92.5 240zM897 311q0 -100 58 -165.5t151 -65.5q91 0 149 66t58 165q0 101 -58 167.5t-149 66.5q-93 0 -151 -66.5t-58 -167.5z" />
    <glyph glyph-name="ampersand" unicode="&#x26;" horiz-adv-x="1314" 
d="M76 356q0 77 23.5 140.5t69 112.5t93.5 84t115 71q-105 179 -105 307q0 135 98.5 225t245.5 90q136 0 222 -71t86 -197q0 -43 -11.5 -81.5t-26.5 -68t-45.5 -60t-54 -50t-67.5 -46t-69 -40t-75 -39.5q60 -80 160 -194q70 -85 162 -183q88 134 147 314l132 -60
q-88 -213 -187 -352q127 -130 266 -258h-213q-41 35 -149 143q-168 -168 -393 -168q-88 0 -164.5 24.5t-134.5 71t-91.5 120t-33.5 165.5zM240 367q0 -122 80.5 -193.5t195.5 -71.5q152 0 285 136q-141 149 -189 206q-103 119 -170 218q-97 -59 -149.5 -128t-52.5 -167z
M430 1067q0 -96 82 -236q65 32 105 56t82.5 59t62.5 76t20 90q0 73 -45 114.5t-116 41.5q-80 0 -135.5 -56.5t-55.5 -144.5z" />
    <glyph glyph-name="quotesingle" unicode="'" horiz-adv-x="407" 
d="M111 1292q0 38 27 66t65 28q39 0 66.5 -27.5t27.5 -66.5q0 -13 -13.5 -125t-27.5 -217l-14 -106h-76q-55 419 -55 448z" />
    <glyph glyph-name="parenleft" unicode="(" horiz-adv-x="507" 
d="M90 498q0 246 75 479.5t214 425.5l94 -70q-109 -213 -162 -403.5t-53 -431.5q0 -240 53 -431.5t162 -402.5l-94 -72q-139 192 -214 426t-75 480z" />
    <glyph glyph-name="parenright" unicode=")" horiz-adv-x="507" 
d="M35 -336l94 -72q139 192 214 426t75 480t-75 479.5t-214 425.5l-94 -70q109 -213 162 -403.5t53 -431.5q0 -240 -53 -431.5t-162 -402.5z" />
    <glyph glyph-name="asterisk" unicode="*" horiz-adv-x="696" 
d="M70 985l209 107l-209 106l45 82l198 -129l-12 235h94l-12 -235l197 129l47 -82l-209 -106l209 -107l-47 -80l-197 127l12 -235h-94l12 235l-198 -127z" />
    <glyph glyph-name="plus" unicode="+" horiz-adv-x="1021" 
d="M59 637v106h394v424h116v-424h394v-106h-394v-436h-116v436h-394z" />
    <glyph glyph-name="comma" unicode="," horiz-adv-x="471" 
d="M117 -197q51 33 89 87t44 104q-8 -4 -29 -4q-41 0 -69.5 30t-28.5 74q0 45 31.5 78t76.5 33q55 0 92 -42.5t37 -113.5q0 -91 -46 -173.5t-119 -135.5z" />
    <glyph glyph-name="hyphen" unicode="-" horiz-adv-x="614" 
d="M61 428v135h492v-135h-492z" />
    <glyph glyph-name="period" unicode="." horiz-adv-x="473" 
d="M123 92q0 46 33.5 79.5t79.5 33.5t79 -33.5t33 -79.5t-33 -79t-79 -33t-79.5 33t-33.5 79z" />
    <glyph glyph-name="slash" unicode="/" horiz-adv-x="606" 
d="M0 -41l485 1448h121l-485 -1448h-121z" />
    <glyph glyph-name="zero" unicode="0" horiz-adv-x="1253" 
d="M104 682q0 104 18 202t58.5 190t100 160.5t148.5 110t198 41.5q108 0 197 -41.5t148.5 -110t100 -160.5t58.5 -190.5t18 -201.5t-18 -201.5t-58.5 -191t-100 -161.5t-148.5 -111t-197 -42q-109 0 -198 42t-148.5 111t-100 162t-58.5 191t-18 201zM279 682
q0 -108 18.5 -202.5t57.5 -176t109 -129t163 -47.5t163 47.5t109 129t57.5 176t18.5 202.5q0 85 -11 162t-37 149.5t-65 125.5t-99.5 84.5t-135.5 31.5t-135.5 -31.5t-99.5 -84.5t-65 -125.5t-37 -149.5t-11 -162z" />
    <glyph glyph-name="one" unicode="1" horiz-adv-x="694" 
d="M43 1014l342 352h150v-1366h-170v1143l-220 -234z" />
    <glyph glyph-name="two" unicode="2" horiz-adv-x="1204" 
d="M109 1171q77 103 202.5 159t272.5 56q87 0 167.5 -25t146 -73t105 -126.5t39.5 -176.5q0 -82 -34 -166.5t-88 -159.5t-145 -165.5t-179 -165t-217 -176.5h670v-152h-938v137q140 109 229 181.5t185 156t152 144t104 126t68.5 124t20.5 116.5q0 123 -84.5 186.5
t-201.5 63.5q-119 0 -213.5 -46t-157.5 -126z" />
    <glyph glyph-name="three" unicode="3" horiz-adv-x="1140" 
d="M59 201l101 106q62 -82 162.5 -131t218.5 -49q148 0 233.5 69t85.5 187q0 123 -91 182.5t-249 59.5q-121 0 -141 -2v155q23 -2 141 -2q139 0 228.5 56.5t89.5 168.5q0 110 -87.5 172t-218.5 62q-110 0 -196.5 -41t-163.5 -125l-94 107q78 96 197 153t272 57
q202 0 331.5 -97t129.5 -265q0 -71 -27.5 -130t-72 -96.5t-93.5 -60t-100 -30.5q49 -5 101.5 -27.5t101.5 -62t80.5 -105t31.5 -143.5q0 -173 -131.5 -283.5t-353.5 -110.5q-165 0 -291.5 63.5t-194.5 162.5z" />
    <glyph glyph-name="four" unicode="4" horiz-adv-x="1142" 
d="M66 346v141l585 879h234v-870h192v-150h-192v-346h-170v346h-649zM236 496h479v712z" />
    <glyph glyph-name="five" unicode="5" horiz-adv-x="1208" 
d="M135 195l105 114q140 -182 376 -182q138 0 227 83.5t89 209.5q0 134 -87.5 214.5t-226.5 80.5q-182 0 -315 -127l-125 43v735h836v-152h-666v-475q55 54 139 88.5t181 34.5q87 0 165 -29t138.5 -82.5t96.5 -137.5t36 -187q0 -203 -139 -327t-349 -124q-315 0 -481 220z
" />
    <glyph glyph-name="six" unicode="6" horiz-adv-x="1210" 
d="M104 682q0 113 20.5 215t65 192t109 155.5t158 103.5t205.5 38q236 0 376 -163l-86 -127q-58 68 -124.5 103.5t-165.5 35.5q-77 0 -142 -30t-109.5 -81.5t-75 -120.5t-45 -146t-14.5 -159v-53q51 81 158.5 147t229.5 66q93 0 173.5 -27.5t141.5 -80.5t96 -137.5
t35 -190.5q0 -89 -33.5 -169.5t-93.5 -142.5t-151 -98.5t-199 -36.5q-112 0 -202 38t-150 103t-100.5 156t-58.5 193t-18 217zM283 508q4 -54 17.5 -105t40.5 -102t64.5 -89t94 -61.5t125.5 -23.5q76 0 137.5 26.5t98.5 69.5t57 93t20 100q0 144 -87.5 219.5t-225.5 75.5
q-101 0 -193 -56t-149 -147z" />
    <glyph glyph-name="seven" unicode="7" horiz-adv-x="1054" 
d="M63 1214v152h932v-117l-559 -1249h-188l551 1214h-736z" />
    <glyph glyph-name="eight" unicode="8" horiz-adv-x="1191" 
d="M106 346q0 129 94 223t232 136q-84 24 -149.5 64.5t-109.5 109t-44 153.5q0 89 40.5 158.5t108.5 111t149 63t169 21.5q87 0 168.5 -21.5t150 -63t109.5 -111t41 -158.5q0 -124 -86.5 -206.5t-218.5 -120.5q138 -41 231.5 -135.5t93.5 -223.5q0 -168 -140.5 -269.5
t-348.5 -101.5q-136 0 -246.5 43.5t-177 129t-66.5 198.5zM279 365q0 -107 92.5 -172.5t224.5 -65.5q131 0 224 65.5t93 172.5q0 51 -25 95t-62 72.5t-82.5 50.5t-82 32.5t-65.5 13.5q-29 -3 -65.5 -13.5t-82 -32.5t-82.5 -50.5t-62 -72.5t-25 -95zM301 1010
q0 -47 23.5 -86.5t56 -64t76.5 -44t76 -28t63 -13.5q31 5 63.5 13.5t76.5 28t77 44t56.5 64t23.5 86.5q0 103 -85 164t-212 61q-128 0 -211.5 -61t-83.5 -164z" />
    <glyph glyph-name="nine" unicode="9" horiz-adv-x="1210" 
d="M100 942q0 89 33.5 169.5t94 142.5t152 98.5t200.5 36.5q111 0 201 -38t150 -103t100.5 -156t58.5 -193t18 -217q0 -113 -21 -215.5t-65.5 -192t-109 -155.5t-157 -104t-204.5 -38q-232 0 -379 164l86 127q58 -68 126 -103.5t167 -35.5t175.5 46.5t121 125t66.5 171
t22 194.5q0 35 -2 53q-51 -81 -158 -147t-227 -66q-126 0 -225.5 47t-161.5 147.5t-62 241.5zM272 948q0 -144 88.5 -219.5t227.5 -75.5q100 0 193 56.5t149 148.5q-5 54 -18.5 104.5t-41 101.5t-65 88.5t-94 61t-125.5 23.5q-75 0 -136.5 -26.5t-99.5 -69t-58 -92.5
t-20 -101z" />
    <glyph glyph-name="colon" unicode=":" horiz-adv-x="460" 
d="M123 92q0 46 33.5 79.5t79.5 33.5t79 -33.5t33 -79.5t-33 -79t-79 -33t-79.5 33t-33.5 79zM123 891q0 46 33.5 79.5t79.5 33.5t79 -33.5t33 -79.5q0 -45 -33.5 -79t-78.5 -34t-79 34t-34 79z" />
    <glyph glyph-name="semicolon" unicode=";" horiz-adv-x="471" 
d="M117 -195q50 33 88.5 88t44.5 105q-8 -4 -29 -4q-42 0 -70 29.5t-28 74.5t31.5 78t76.5 33q55 0 92 -42.5t37 -113.5q0 -92 -45.5 -174t-119.5 -135zM123 891q0 46 33.5 79.5t79.5 33.5t79 -33.5t33 -79.5q0 -45 -33.5 -79t-78.5 -34t-79 34t-34 79z" />
    <glyph glyph-name="less" unicode="&#x3c;" horiz-adv-x="1021" 
d="M59 631v108l904 449v-129l-773 -375l773 -371v-129z" />
    <glyph glyph-name="equal" unicode="=" horiz-adv-x="1021" 
d="M59 432v109h904v-109h-904zM59 827v109h904v-109h-904z" />
    <glyph glyph-name="greater" unicode="&#x3e;" horiz-adv-x="1021" 
d="M59 184v129l772 371l-772 375v129l904 -449v-108z" />
    <glyph glyph-name="question" unicode="?" horiz-adv-x="946" 
d="M37 1178q75 99 188 153.5t256 54.5q183 0 292.5 -90.5t109.5 -226.5q0 -63 -22 -116t-57 -90.5t-77 -70.5t-84 -62t-77 -57.5t-57 -64.5t-22 -76q0 -59 54 -98l-125 -55q-78 67 -78 168q0 53 20.5 97.5t53 77t71.5 61.5t78.5 56.5t72 56t53 66.5t20.5 82q0 81 -62.5 136
t-177.5 55q-111 0 -189 -43t-139 -125zM346 92q0 46 33.5 79.5t79.5 33.5t79 -33.5t33 -79.5t-33 -79t-79 -33t-79.5 33t-33.5 79z" />
    <glyph glyph-name="at" unicode="@" horiz-adv-x="1603" 
d="M72 500q0 162 67.5 312t179 258t260.5 172.5t306 64.5q189 0 337.5 -88t228 -235.5t79.5 -326.5q0 -115 -31 -209t-82 -152.5t-113 -90t-128 -31.5q-82 0 -132 48.5t-55 117.5v14q-56 -80 -143 -130t-182 -50q-142 0 -228 92t-86 242q0 104 41.5 200t108.5 164.5t154 109
t177 40.5q95 0 163.5 -45t99.5 -115l26 127h140l-117 -555q-4 -24 -4 -43q0 -49 27.5 -77.5t68.5 -28.5q26 0 54 11t59 39t55 68.5t39.5 106.5t15.5 147q0 254 -160 417t-419 163q-145 0 -281.5 -61t-236 -161.5t-159 -235t-59.5 -275.5q0 -162 75 -295t209.5 -209
t301.5 -76q199 0 381 115l37 -53q-200 -129 -426 -129q-183 0 -332 85t-233 232t-84 326zM498 516q0 -101 55.5 -164t153.5 -63q95 0 172.5 53.5t130.5 130.5l59 285q-21 58 -75 103.5t-136 45.5q-150 0 -255 -119t-105 -272z" />
    <glyph glyph-name="A" unicode="A" horiz-adv-x="1347" 
d="M18 0l551 1366h211l549 -1366h-194l-121 305h-680l-121 -305h-195zM385 455h580l-291 737z" />
    <glyph glyph-name="B" unicode="B" horiz-adv-x="1288" 
d="M160 0v1366h608q176 0 279.5 -96t103.5 -252q0 -123 -70 -207t-170 -106q109 -17 188 -115.5t79 -220.5q0 -167 -105.5 -268t-290.5 -101h-622zM330 152h420q118 0 184.5 63t66.5 172q0 100 -66 168t-185 68h-420v-471zM330 774h409q112 0 174 61t62 158q0 96 -62 158.5
t-174 62.5h-409v-440z" />
    <glyph glyph-name="C" unicode="C" horiz-adv-x="1384" 
d="M104 682q0 154 55 287t149 224.5t223.5 143.5t275.5 52q329 0 518 -271l-141 -80q-60 90 -161 144.5t-216 54.5q-226 0 -376 -155.5t-150 -399.5q0 -159 69 -286.5t189 -198t268 -70.5q114 0 215.5 55t161.5 144l143 -78q-199 -273 -520 -273q-146 0 -275.5 52
t-223.5 143.5t-149 224.5t-55 287z" />
    <glyph glyph-name="D" unicode="D" horiz-adv-x="1433" 
d="M160 0v1366h467q208 0 369 -90.5t246 -245.5t85 -348q0 -145 -50 -270.5t-140 -216.5t-221.5 -143t-288.5 -52h-467zM330 152h297q161 0 282 72t181.5 191t60.5 267q0 150 -59.5 269t-180 191t-284.5 72h-297v-1062z" />
    <glyph glyph-name="E" unicode="E" horiz-adv-x="1165" 
d="M160 0v1366h895v-152h-725v-440h710v-151h-710v-471h725v-152h-895z" />
    <glyph glyph-name="F" unicode="F" horiz-adv-x="1128" 
d="M160 0v1366h895v-152h-725v-440h710v-151h-710v-623h-170z" />
    <glyph glyph-name="G" unicode="G" horiz-adv-x="1460" 
d="M104 682q0 156 55.5 289.5t150 224.5t223.5 142t274 51q324 0 530 -254l-135 -86q-66 86 -170.5 137t-224.5 51q-226 0 -376 -155.5t-150 -399.5q0 -159 69 -286.5t189 -198t268 -70.5q113 0 211 43.5t158 103.5v277h-471v151h638v-491q-99 -111 -236.5 -174.5
t-299.5 -63.5q-145 0 -274 51.5t-223.5 143t-150 225t-55.5 289.5z" />
    <glyph glyph-name="H" unicode="H" horiz-adv-x="1458" 
d="M160 0v1366h170v-588h798v588h170v-1366h-170v627h-798v-627h-170z" />
    <glyph glyph-name="I" unicode="I" horiz-adv-x="489" 
d="M160 0v1366h170v-1366h-170z" />
    <glyph glyph-name="J" unicode="J" horiz-adv-x="972" 
d="M23 133l90 129q107 -135 256 -135q125 0 199.5 79t74.5 208v952h170v-954q0 -143 -58.5 -243.5t-154.5 -147t-221 -46.5q-222 0 -356 158z" />
    <glyph glyph-name="K" unicode="K" horiz-adv-x="1230" 
d="M160 0v1366h170v-704l604 704h213l-569 -647l620 -719h-213l-518 614l-137 -155v-459h-170z" />
    <glyph glyph-name="L" unicode="L" horiz-adv-x="1009" 
d="M137 0v1366h170v-1214h635v-152h-805z" />
    <glyph glyph-name="M" unicode="M" horiz-adv-x="1656" 
d="M160 0v1366h243l426 -1053l424 1053h244v-1366h-170v1149l-463 -1149h-69l-465 1149v-1149h-170z" />
    <glyph glyph-name="N" unicode="N" horiz-adv-x="1449" 
d="M160 0v1366h174l786 -1067v1067h170v-1366h-164l-796 1090v-1090h-170z" />
    <glyph glyph-name="O" unicode="O" horiz-adv-x="1566" 
d="M104 682q0 200 84.5 361t240 253.5t353.5 92.5t354 -92.5t241 -253.5t85 -361t-85 -361t-241 -253.5t-354 -92.5t-353.5 92.5t-240 253.5t-84.5 361zM281 682q0 -158 60.5 -284t175.5 -198.5t265 -72.5t265.5 72.5t177 198.5t61.5 284q0 242 -139 398.5t-365 156.5
q-227 0 -364 -156t-137 -399z" />
    <glyph glyph-name="P" unicode="P" horiz-adv-x="1202" 
d="M160 0v1366h549q198 0 313 -118.5t115 -293.5q0 -174 -115.5 -292.5t-312.5 -118.5h-379v-543h-170zM330 694h358q121 0 197 72t76 188t-76 188t-197 72h-358v-520z" />
    <glyph glyph-name="Q" unicode="Q" horiz-adv-x="1566" 
d="M104 682q0 200 84.5 361t240 253.5t353.5 92.5t354 -92.5t241 -253.5t85 -361q0 -305 -188 -506l129 -137l-117 -102l-133 141q-159 -103 -371 -103q-198 0 -353.5 92.5t-240 253.5t-84.5 361zM281 682q0 -158 60.5 -284t175.5 -198.5t265 -72.5q145 0 260 70l-194 211
l119 100l192 -209q127 156 127 383q0 242 -139 398.5t-365 156.5q-227 0 -364 -156t-137 -399z" />
    <glyph glyph-name="R" unicode="R" horiz-adv-x="1247" 
d="M160 0v1366h549q190 0 310 -112.5t120 -299.5q0 -89 -29.5 -163t-79.5 -122.5t-113.5 -77t-134.5 -34.5l369 -557h-201l-346 543h-274v-543h-170zM330 692h358q121 0 198 73t77 189t-76.5 188t-198.5 72h-358v-522z" />
    <glyph glyph-name="S" unicode="S" horiz-adv-x="1200" 
d="M78 193l102 131q74 -86 183.5 -141.5t244.5 -55.5q87 0 152.5 22t101 58t52 75.5t16.5 82.5q0 56 -27.5 98.5t-74.5 69t-107.5 47t-127.5 38.5t-134.5 37t-128 48t-107.5 67.5t-74.5 99t-27.5 138.5q0 168 133.5 274.5t337.5 106.5q300 0 483 -193l-102 -125
q-145 164 -395 164q-122 0 -201.5 -60.5t-79.5 -156.5q0 -49 27.5 -86t74.5 -60.5t107.5 -42.5t128 -37t134.5 -38.5t127.5 -52t107.5 -73t74.5 -105.5t27.5 -146q0 -78 -28 -147t-85 -127.5t-157.5 -93t-233.5 -34.5q-169 0 -301.5 58.5t-222.5 159.5z" />
    <glyph glyph-name="T" unicode="T" horiz-adv-x="1167" 
d="M66 1214v152h1036v-152h-434v-1214h-170v1214h-432z" />
    <glyph glyph-name="U" unicode="U" horiz-adv-x="1435" 
d="M160 530v836h172v-831q0 -191 99.5 -299.5t285.5 -108.5t286.5 109t100.5 299v831h172v-834q0 -261 -143 -409t-416 -148q-271 0 -414 148.5t-143 406.5z" />
    <glyph glyph-name="V" unicode="V" horiz-adv-x="1347" 
d="M18 1366h195l461 -1180l461 1180h194l-549 -1366h-211z" />
    <glyph glyph-name="W" unicode="W" horiz-adv-x="1808" 
d="M29 1366h188l303 -1139l314 1139h141l313 -1139l301 1139h191l-391 -1366h-185l-301 1102l-301 -1102h-184z" />
    <glyph glyph-name="X" unicode="X" horiz-adv-x="1335" 
d="M25 0l532 700l-502 666h207l406 -545l403 545h209l-502 -664l533 -702h-207l-436 582l-437 -582h-206z" />
    <glyph glyph-name="Y" unicode="Y" horiz-adv-x="1282" 
d="M18 1366h199l424 -635l424 635h199l-537 -788v-578h-170v578z" />
    <glyph glyph-name="Z" unicode="Z" horiz-adv-x="1198" 
d="M98 0v141l768 1073h-768v152h987v-141l-770 -1073h785v-152h-1002z" />
    <glyph glyph-name="bracketleft" unicode="[" horiz-adv-x="497" 
d="M82 -389v1778h381v-113h-260v-1552h260v-113h-381z" />
    <glyph glyph-name="backslash" unicode="\" horiz-adv-x="606" 
d="M0 1407h121l485 -1448h-121z" />
    <glyph glyph-name="bracketright" unicode="]" horiz-adv-x="497" 
d="M35 -276h262v1552h-262v113h383v-1778h-383v113z" />
    <glyph glyph-name="asciicircum" unicode="^" horiz-adv-x="884" 
d="M39 682l346 684h117l344 -684h-127l-277 571l-276 -571h-127z" />
    <glyph glyph-name="underscore" unicode="_" horiz-adv-x="1155" 
d="M-6 -82h1167v-113h-1167v113z" />
    <glyph glyph-name="a" unicode="a" horiz-adv-x="1081" 
d="M100 303q0 80 30 144.5t79.5 103t109.5 58.5t125 20q210 0 328 -133v178q0 96 -70 151.5t-180 55.5q-176 0 -303 -138l-72 107q157 164 396 164q82 0 149.5 -19t120.5 -57.5t83 -104.5t30 -153v-680h-154v113q-123 -138 -328 -138q-63 0 -123.5 21.5t-110.5 61.5
t-80 103.5t-30 141.5zM256 303q0 -95 68.5 -156t177.5 -61q82 0 154.5 31.5t115.5 91.5v188q-43 58 -115.5 89.5t-154.5 31.5q-108 0 -177 -60.5t-69 -154.5z" />
    <glyph glyph-name="b" unicode="b" horiz-adv-x="1177" 
d="M154 0v1366h153v-526q60 82 147.5 128t186.5 46q196 0 318 -142t122 -378q0 -238 -122 -378.5t-318 -140.5q-101 0 -188.5 47t-145.5 125v-147h-153zM307 268q41 -66 124 -110.5t173 -44.5q146 0 232 106.5t86 274.5t-86 275.5t-232 107.5q-89 0 -172.5 -46.5
t-124.5 -113.5v-449z" />
    <glyph glyph-name="c" unicode="c" horiz-adv-x="1015" 
d="M96 496q0 146 61.5 263.5t174.5 186t258 68.5q229 0 362 -172l-102 -92q-93 127 -252 127q-155 0 -248.5 -107t-93.5 -274t94 -275t248 -108q155 0 252 129l102 -95q-133 -172 -362 -172q-218 0 -356 149t-138 372z" />
    <glyph glyph-name="d" unicode="d" horiz-adv-x="1177" 
d="M96 494q0 235 123 377.5t318 142.5q99 0 185.5 -46t147.5 -128v526h154v-1366h-154v147q-58 -78 -145 -125t-188 -47q-196 0 -318.5 140.5t-122.5 378.5zM256 494q0 -168 85.5 -274.5t233.5 -106.5q89 0 171.5 45.5t123.5 111.5v447q-41 67 -124 113.5t-171 46.5
q-147 0 -233 -107.5t-86 -275.5z" />
    <glyph glyph-name="e" unicode="e" horiz-adv-x="1153" 
d="M96 496q0 142 62.5 260.5t174.5 188t251 69.5q146 0 255 -71t164.5 -190.5t55.5 -269.5v-39h-799q9 -146 104.5 -244t249.5 -98q87 0 167.5 33t140.5 94l73 -100q-157 -154 -393 -154q-222 0 -364 145t-142 376zM258 559h649q-1 57 -20.5 113t-57.5 105t-102 79.5
t-145 30.5q-76 0 -138 -30t-100.5 -78.5t-60.5 -105t-25 -114.5z" />
    <glyph glyph-name="f" unicode="f" horiz-adv-x="581" 
d="M33 854v135h164v76q0 151 77 236t209 85q129 0 209 -75l-63 -99q-55 48 -121 48q-77 0 -117.5 -50t-40.5 -145v-76h201v-135h-201v-854h-153v854h-164z" />
    <glyph glyph-name="g" unicode="g" horiz-adv-x="1177" 
d="M96 500q0 235 122 374.5t319 139.5q99 0 185.5 -46t147.5 -128v149h154v-975q0 -113 -39 -196t-107.5 -129.5t-149.5 -68t-177 -21.5q-130 0 -221.5 32t-177.5 117l77 111q61 -71 137.5 -102t184.5 -31q136 0 227.5 71t91.5 217v150q-58 -79 -145.5 -127.5t-187.5 -48.5
q-197 0 -319 138t-122 374zM256 500q0 -166 85.5 -270.5t233.5 -104.5q88 0 170 46.5t125 113.5v434q-43 66 -125.5 112t-169.5 46q-148 0 -233.5 -104.5t-85.5 -272.5z" />
    <glyph glyph-name="h" unicode="h" horiz-adv-x="1130" 
d="M156 0v1366h153v-520q56 69 151.5 118.5t201.5 49.5q315 0 315 -316v-698h-154v651q0 125 -57 175.5t-166 50.5q-85 0 -165 -45t-126 -109v-723h-153z" />
    <glyph glyph-name="i" unicode="i" horiz-adv-x="460" 
d="M127 1233q0 43 30.5 73.5t73.5 30.5t73 -30.5t30 -73.5t-30 -73t-73 -30t-73.5 30t-30.5 73zM154 0v989h153v-989h-153z" />
    <glyph glyph-name="j" unicode="j" horiz-adv-x="460" 
d="M-201 -328l54 115q61 -61 141 -61q73 0 116.5 44t43.5 134v1085h153v-1085q0 -147 -75.5 -226t-217.5 -79q-72 0 -119.5 17t-95.5 56zM127 1233q0 43 30.5 73.5t73.5 30.5t73 -30.5t30 -73.5t-30 -73t-73 -30t-73.5 30t-30.5 73z" />
    <glyph glyph-name="k" unicode="k" horiz-adv-x="1052" 
d="M154 0v1366h153v-903l520 526h195l-438 -448l440 -541h-197l-354 444l-166 -161v-283h-153z" />
    <glyph glyph-name="l" unicode="l" horiz-adv-x="460" 
d="M154 0v1366h153v-1366h-153z" />
    <glyph glyph-name="m" unicode="m" horiz-adv-x="1654" 
d="M154 0v989h153v-143q40 58 131 113t191 55q107 0 174 -51.5t90 -133.5q45 73 138 129t194 56q136 0 206 -75t70 -224v-715h-153v672q0 205 -183 205q-74 0 -148 -44.5t-114 -107.5v-725h-153v672q0 205 -183 205q-72 0 -145 -45.5t-115 -108.5v-723h-153z" />
    <glyph glyph-name="n" unicode="n" horiz-adv-x="1130" 
d="M154 0v989h153v-143q58 69 154 118.5t201 49.5q313 0 313 -320v-694h-152v647q0 125 -58 177.5t-165 52.5q-86 0 -165.5 -45t-127.5 -109v-723h-153z" />
    <glyph glyph-name="o" unicode="o" 
d="M96 496q0 144 59 261t171.5 187t259.5 70t259.5 -70t171 -187t58.5 -261t-58.5 -262t-171 -188.5t-259.5 -70.5t-259.5 70.5t-171.5 188.5t-59 262zM258 496q0 -160 88 -271.5t240 -111.5q102 0 177.5 54t112.5 139.5t37 189.5q0 103 -37 188t-112.5 139t-177.5 54
t-178 -54t-113 -139.5t-37 -187.5z" />
    <glyph glyph-name="p" unicode="p" 
d="M154 -377v1366h153v-147q56 78 144.5 125t189.5 47q197 0 318.5 -139.5t121.5 -378.5q0 -237 -121.5 -379t-318.5 -142q-100 0 -185.5 46t-148.5 129v-527h-153zM307 272q41 -67 124 -113t171 -46q146 0 232 107.5t86 275.5t-86 274.5t-232 106.5q-88 0 -171 -46
t-124 -112v-447z" />
    <glyph glyph-name="q" unicode="q" 
d="M90 496q0 239 121.5 378.5t318.5 139.5q101 0 189.5 -47t144.5 -125v147h154v-1366h-154v527q-63 -83 -148.5 -129t-185.5 -46q-197 0 -318.5 142t-121.5 379zM252 496q0 -168 85.5 -275.5t231.5 -107.5q88 0 171 46t124 113v447q-41 66 -124 112t-171 46
q-146 0 -231.5 -106.5t-85.5 -274.5z" />
    <glyph glyph-name="r" unicode="r" horiz-adv-x="675" 
d="M154 0v989h153v-158q64 82 149 131.5t181 49.5v-158q-36 4 -59 4q-71 0 -154 -48.5t-117 -109.5v-700h-153z" />
    <glyph glyph-name="s" unicode="s" horiz-adv-x="952" 
d="M70 131l77 111q53 -60 141 -101t185 -41q111 0 173.5 47t62.5 123q0 48 -34 81t-88 51t-119 33t-130.5 35t-119.5 49t-88 82.5t-34 127.5q0 122 98 203.5t269 81.5q226 0 366 -144l-71 -106q-46 56 -123.5 90.5t-171.5 34.5q-99 0 -159 -44.5t-60 -111.5q0 -43 34 -72.5
t87.5 -46t119 -31t131 -35.5t119 -51.5t87.5 -87.5t34 -135q0 -130 -101.5 -214.5t-285.5 -84.5q-249 0 -399 156z" />
    <glyph glyph-name="t" unicode="t" horiz-adv-x="602" 
d="M20 854v135h164v271h156v-271h201v-135h-201v-614q0 -58 25 -92.5t73 -34.5q68 0 105 43l45 -117q-67 -64 -182 -64q-109 0 -165.5 60.5t-56.5 171.5v647h-164z" />
    <glyph glyph-name="u" unicode="u" horiz-adv-x="1128" 
d="M154 291v698h153v-651q0 -124 57 -174.5t166 -50.5q86 0 166 43t125 106v727h154v-989h-154v139q-62 -70 -155 -117t-197 -47q-315 0 -315 316z" />
    <glyph glyph-name="v" unicode="v" horiz-adv-x="1003" 
d="M6 989h168l328 -811l329 811h166l-411 -989h-168z" />
    <glyph glyph-name="w" unicode="w" horiz-adv-x="1503" 
d="M25 989h159l242 -788l260 788h133l258 -788l242 788h162l-316 -989h-155l-258 795l-258 -795h-154z" />
    <glyph glyph-name="x" unicode="x" horiz-adv-x="997" 
d="M25 0l378 508l-358 481h178l275 -377l276 377h176l-358 -481l381 -508h-176l-299 406l-297 -406h-176z" />
    <glyph glyph-name="y" unicode="y" horiz-adv-x="1003" 
d="M6 989h168l328 -811l329 811h166l-495 -1190q-81 -197 -291 -200q-64 0 -111 14l23 139q37 -16 84 -16q54 0 88 22.5t59 81.5l66 150z" />
    <glyph glyph-name="z" unicode="z" horiz-adv-x="966" 
d="M106 0v121l545 733h-545v135h746v-117l-549 -737h557v-135h-754z" />
    <glyph glyph-name="braceleft" unicode="{" horiz-adv-x="534" 
d="M10 449v102q53 0 81 40t28 101v420q0 123 76 200t178 77h127v-113h-127q-55 0 -95 -46t-40 -116v-434q0 -140 -93 -180q93 -40 93 -181v-432q0 -69 40 -116t95 -47h127v-113h-127q-102 0 -178 76.5t-76 197.5v422q0 61 -28 101.5t-81 40.5z" />
    <glyph glyph-name="bar" unicode="|" horiz-adv-x="432" 
d="M160 -41v1448h112v-1448h-112z" />
    <glyph glyph-name="braceright" unicode="}" horiz-adv-x="534" 
d="M35 -276h125q56 0 96.5 47t40.5 116v432q0 142 92 181q-92 39 -92 180v434q0 71 -40 116.5t-97 45.5h-125v113h125q103 0 179.5 -77t76.5 -200v-420q0 -61 27.5 -101t78.5 -40v-102q-51 0 -78.5 -40.5t-27.5 -101.5v-422q0 -121 -76.5 -197.5t-179.5 -76.5h-125v113z" />
    <glyph glyph-name="asciitilde" unicode="~" horiz-adv-x="1030" 
d="M55 879q8 81 19 146.5t32.5 131t51.5 109t76 71t104 27.5q52 0 92 -21.5t63.5 -56t41.5 -76.5t32 -83.5t29.5 -76t39.5 -56t56 -21.5q71 0 110 102t58 291l113 -12q-8 -82 -18.5 -146.5t-32 -131.5t-50.5 -110.5t-75 -71.5t-105 -28q-60 0 -104.5 29t-66.5 72t-42.5 93.5
t-35 93.5t-41.5 72t-64 29t-65 -28t-48 -82t-33 -122.5t-22 -158.5z" />
    <glyph glyph-name="uni00A0" unicode="&#xa0;" horiz-adv-x="530" 
 />
    <glyph glyph-name="exclamdown" unicode="&#xa1;" horiz-adv-x="471" 
d="M123 897q0 46 33.5 79.5t79.5 33.5q45 0 77.5 -33.5t32.5 -79.5q0 -45 -32.5 -78t-77.5 -33q-46 0 -79.5 33.5t-33.5 77.5zM139 -377l31 983h129l33 -983h-193z" />
    <glyph glyph-name="cent" unicode="&#xa2;" horiz-adv-x="1015" 
d="M96 496q0 201 115.5 343.5t304.5 168.5v149h121v-145q192 -15 315 -170l-102 -92q-81 111 -213 124v-759q129 12 213 127l102 -95q-120 -155 -315 -170v-182h-121v187q-189 25 -304.5 168t-115.5 346zM256 496q0 -144 69.5 -245.5t190.5 -129.5v747q-120 -28 -190 -129
t-70 -243z" />
    <glyph glyph-name="sterling" unicode="&#xa3;" horiz-adv-x="1060" 
d="M41 549v110h215q-77 89 -102 129q-56 92 -56 195q0 111 62.5 204t168 146t228.5 53q140 0 248.5 -60t165.5 -169l-137 -82q-28 70 -99.5 119t-161.5 49q-122 0 -206 -71.5t-84 -190.5q0 -43 9 -80.5t29 -72t36.5 -57.5t46 -58.5t42.5 -53.5h308v-110h-250q14 -47 14 -88
q0 -161 -156 -271q59 19 107 19q67 0 157 -42t146 -42q63 0 117.5 25.5t77.5 56.5l73 -137q-101 -97 -276 -97q-62 0 -113.5 15t-81.5 32.5t-75.5 32.5t-96.5 15q-84 0 -241 -82l-60 129q130 57 200.5 138t70.5 173q0 59 -31 123h-295z" />
    <glyph glyph-name="currency" unicode="&#xa4;" horiz-adv-x="1069" 
d="M74 281l114 114q-102 127 -102 287q0 163 102 287l-114 116l57 58l117 -115q120 102 287 102q162 0 286 -102l115 115l59 -58l-114 -116q102 -124 102 -287q0 -160 -102 -287l114 -114l-59 -60l-115 117q-124 -105 -286 -105q-163 0 -287 105l-117 -117zM184 682
q0 -145 103 -247.5t248 -102.5t247.5 102.5t102.5 247.5q0 146 -102.5 248t-247.5 102t-248 -102t-103 -248z" />
    <glyph glyph-name="yen" unicode="&#xa5;" horiz-adv-x="1282" 
d="M18 1366h199l424 -635l424 635h199l-465 -682h440v-106h-512v-220h512v-108h-512v-250h-170v250h-512v108h512v220h-512v106h438z" />
    <glyph glyph-name="brokenbar" unicode="&#xa6;" horiz-adv-x="432" 
d="M160 -41v647h112v-647h-112zM160 760v647h112v-647h-112z" />
    <glyph glyph-name="section" unicode="&#xa7;" horiz-adv-x="958" 
d="M70 -6l77 100q51 -62 135 -103.5t187 -41.5q107 0 173.5 47t66.5 129q0 51 -34 86t-88 54.5t-119 35.5t-130.5 36.5t-119.5 49t-88 82t-34 127.5q0 101 66.5 167t167.5 93q-113 36 -173.5 96t-60.5 158q0 117 99.5 196.5t267.5 79.5q236 0 366 -145l-71 -92
q-50 61 -127.5 92t-161.5 31q-101 0 -163 -45t-62 -119q0 -36 21 -63t56.5 -43.5t81.5 -29.5t96.5 -25t101 -26t96.5 -36t81.5 -52.5t56.5 -78t21 -109.5q0 -86 -48 -153.5t-140 -106.5q92 -36 140 -95.5t48 -154.5q0 -140 -107 -220.5t-280 -80.5q-139 0 -230.5 42.5
t-168.5 117.5zM244 610q0 -53 43.5 -90.5t86 -51.5t134.5 -37q18 -5 27 -7q85 37 127.5 85t42.5 118q0 42 -19 73.5t-56 53t-71.5 34t-85.5 25.5q-126 -32 -177.5 -82t-51.5 -121z" />
    <glyph glyph-name="dieresis" unicode="&#xa8;" horiz-adv-x="557" 
d="M-29 1237q0 39 28.5 66.5t68.5 27.5q39 0 66.5 -27.5t27.5 -66.5q0 -38 -28 -66t-66 -28q-40 0 -68.5 28t-28.5 66zM395 1237q0 39 27.5 66.5t66.5 27.5q40 0 68.5 -27.5t28.5 -66.5q0 -38 -28.5 -66t-68.5 -28q-38 0 -66 28t-28 66z" />
    <glyph glyph-name="copyright" unicode="&#xa9;" horiz-adv-x="1593" 
d="M90 684q0 192 95 355t258 257.5t354 94.5q144 0 275 -56t225 -150.5t150 -225.5t56 -275q0 -143 -56 -274t-150 -226t-225 -151t-275 -56q-191 0 -354 95t-258 258t-95 354zM154 684q0 -130 51.5 -249t137.5 -205t205 -137.5t249 -51.5t249.5 51.5t205.5 138t137 205
t51 248.5q0 174 -86.5 322t-234.5 234.5t-322 86.5q-130 0 -248.5 -51t-205 -137t-138 -205.5t-51.5 -249.5zM375 688q0 186 123.5 310t302.5 124q185 0 299 -133l-51 -51q-39 54 -107 85.5t-141 31.5q-143 0 -246.5 -104t-103.5 -265q0 -158 104.5 -264.5t245.5 -106.5
q73 0 140.5 32.5t107.5 86.5l53 -51q-116 -135 -301 -135q-178 0 -302 127t-124 313z" />
    <glyph glyph-name="ordfeminine" unicode="&#xaa;" horiz-adv-x="774" 
d="M84 864q0 100 68.5 155.5t160.5 55.5q139 0 222 -86v113q0 61 -47.5 97t-116.5 36q-123 0 -201 -94l-53 78q105 108 268 108q117 0 191.5 -55t74.5 -172v-432h-116v71q-85 -88 -222 -88q-91 0 -160 58t-69 155zM203 864q0 -61 43.5 -98t111.5 -37q53 0 100.5 21t76.5 57
v115q-29 36 -76.5 56.5t-100.5 20.5q-68 0 -111.5 -37.5t-43.5 -97.5z" />
    <glyph glyph-name="guillemotleft" unicode="&#xab;" horiz-adv-x="899" 
d="M61 498l328 362h154l-328 -362l328 -369h-154zM356 498l328 362h154l-328 -362l328 -369h-154z" />
    <glyph glyph-name="logicalnot" unicode="&#xac;" horiz-adv-x="1032" 
d="M59 827v109h904v-504h-113v395h-791z" />
    <glyph glyph-name="uni00AD" unicode="&#xad;" horiz-adv-x="614" 
d="M61 428v135h492v-135h-492z" />
    <glyph glyph-name="registered" unicode="&#xae;" horiz-adv-x="1011" 
d="M72 952q0 181 127 307.5t307 126.5q119 0 219 -57.5t157.5 -157.5t57.5 -219q0 -180 -126.5 -307t-307.5 -127q-180 0 -307 127t-127 307zM131 952q0 -154 110 -264t265 -110t265 110t110 264q0 158 -109.5 266.5t-265.5 108.5t-265.5 -108.5t-109.5 -266.5zM340 702v498
h203q65 0 111 -42t46 -109q0 -72 -46 -110t-81 -38l134 -199h-82l-129 197h-90v-197h-66zM406 958h137q34 0 62 27t28 64q0 40 -28 67t-62 27h-137v-185z" />
    <glyph glyph-name="degree" unicode="&#xb0;" horiz-adv-x="593" 
d="M47 1137q0 103 73 176t177 73q103 0 176.5 -73t73.5 -176q0 -104 -73.5 -177t-176.5 -73q-104 0 -177 73t-73 177zM147 1137q0 -63 43.5 -106.5t106.5 -43.5q62 0 107 44t45 106q0 61 -45 106t-107 45q-63 0 -106.5 -44.5t-43.5 -106.5z" />
    <glyph glyph-name="plusminus" unicode="&#xb1;" horiz-adv-x="1021" 
d="M59 0v109h904v-109h-904zM59 664v106h394v424h116v-424h394v-106h-394v-437h-116v437h-394z" />
    <glyph glyph-name="uni00B2" unicode="&#xb2;" horiz-adv-x="794" 
d="M100 1565q49 62 130 95.5t171 33.5q78 0 142.5 -24.5t107.5 -81t43 -136.5q0 -60 -28.5 -119.5t-87.5 -122t-127 -118.5t-168 -129h415v-101h-596v92q256 184 362.5 290t106.5 200q0 73 -51 111t-123 38t-133.5 -30.5t-95.5 -75.5z" />
    <glyph glyph-name="uni00B3" unicode="&#xb3;" horiz-adv-x="794" 
d="M86 981l68 78q40 -51 103.5 -81t133.5 -30q87 0 138 39t51 105q0 74 -58 107.5t-155 33.5q-70 0 -82 -2v102q14 -2 82 -2q91 0 145.5 31.5t54.5 99.5q0 62 -52.5 96.5t-131.5 34.5q-132 0 -223 -98l-64 72q111 127 299 127q131 0 212 -59.5t81 -159.5q0 -82 -55.5 -130
t-126.5 -59q31 -3 63.5 -16.5t63 -37t50 -62t19.5 -85.5q0 -106 -83 -171.5t-226 -65.5q-104 0 -184.5 37t-122.5 96z" />
    <glyph glyph-name="acute" unicode="&#xb4;" horiz-adv-x="462" 
d="M0 1139l303 295h160l-346 -295h-117z" />
    <glyph glyph-name="paragraph" unicode="&#xb6;" horiz-adv-x="919" 
d="M55 1014q0 146 103.5 249t249.5 103h366v-1571h-92v1479h-182v-1479h-92v867q-146 0 -249.5 103t-103.5 249z" />
    <glyph glyph-name="cedilla" unicode="&#xb8;" horiz-adv-x="419" 
d="M0 -330l39 78q73 -59 164 -59q53 0 89 23t36 63q0 33 -19.5 52t-56.5 19q-51 0 -78 -34l-68 38l64 173h92l-53 -136q29 23 76 23q59 0 97 -37.5t38 -99.5q0 -74 -61 -119t-152 -45q-63 0 -118.5 17.5t-88.5 43.5z" />
    <glyph glyph-name="uni00B9" unicode="&#xb9;" horiz-adv-x="481" 
d="M29 1456l221 225h108v-819h-122v660l-136 -142z" />
    <glyph glyph-name="ordmasculine" unicode="&#xba;" horiz-adv-x="829" 
d="M82 989q0 143 91.5 240.5t240.5 97.5q151 0 242.5 -97t91.5 -241q0 -143 -91.5 -240.5t-242.5 -97.5q-148 0 -240 98t-92 240zM205 989q0 -103 56 -171t153 -68q98 0 155.5 68t57.5 171t-57.5 170.5t-155.5 67.5q-97 0 -153 -67.5t-56 -170.5z" />
    <glyph glyph-name="guillemotright" unicode="&#xbb;" horiz-adv-x="899" 
d="M61 129l328 369l-328 362h154l328 -362l-328 -369h-154zM356 129l328 369l-328 362h154l328 -362l-328 -369h-154z" />
    <glyph glyph-name="onequarter" unicode="&#xbc;" horiz-adv-x="1576" 
d="M29 1141l221 225h108v-819h-122v659l-136 -141zM223 0l873 1366h112l-874 -1366h-111zM860 205v92l354 522h170v-514h117v-100h-117v-205h-122v205h-402zM983 305h279v406z" />
    <glyph glyph-name="onehalf" unicode="&#xbd;" horiz-adv-x="1652" 
d="M29 1141l221 225h108v-819h-122v659l-136 -141zM223 0l873 1366h112l-874 -1366h-111zM958 702q49 62 130.5 95.5t171.5 33.5q79 0 143 -24.5t106.5 -80.5t42.5 -136q0 -48 -20.5 -97.5t-54 -94.5t-88 -97t-112 -98t-136.5 -103h415v-100h-595v92q256 184 362.5 290
t106.5 200q0 73 -51 111t-124 38q-72 0 -133.5 -30.5t-95.5 -75.5z" />
    <glyph glyph-name="threequarters" unicode="&#xbe;" horiz-adv-x="1798" 
d="M86 666l68 77q40 -51 103.5 -80.5t133.5 -29.5q88 0 138.5 38.5t50.5 104.5q0 74 -58 108t-155 34q-64 0 -82 -3v103q14 -2 82 -2q91 0 145.5 31.5t54.5 99.5q0 62 -52.5 96.5t-131.5 34.5q-132 0 -223 -98l-64 71q111 127 299 127q131 0 212 -59.5t81 -159.5
q0 -82 -55.5 -129.5t-126.5 -58.5q31 -3 63.5 -16.5t63 -37t50 -62t19.5 -85.5q0 -106 -83 -172t-226 -66q-104 0 -184.5 37.5t-122.5 96.5zM444 0l873 1366h113l-875 -1366h-111zM1083 205v92l355 522h170v-514h116v-100h-116v-205h-123v205h-402zM1206 305h279v406z" />
    <glyph glyph-name="questiondown" unicode="&#xbf;" horiz-adv-x="806" 
d="M63 -84q0 63 22 116t57 90.5t77 70.5t84 62t77 57.5t57 64.5t22 76q0 60 -53 98l124 55q78 -67 78 -168q0 -53 -20.5 -97.5t-53 -77t-71.5 -61.5t-78 -56.5t-71.5 -56t-53 -66.5t-20.5 -82q0 -81 62.5 -136t176.5 -55q111 0 189 42.5t139 123.5l102 -109
q-75 -99 -188 -153.5t-256 -54.5q-183 0 -292.5 90.5t-109.5 226.5zM375 897q0 46 33 79.5t79 33.5t79.5 -33.5t33.5 -79.5t-33.5 -79.5t-79.5 -33.5t-79 33.5t-33 79.5z" />
    <glyph glyph-name="Agrave" unicode="&#xc0;" horiz-adv-x="1347" 
d="M18 0l551 1366h211l549 -1366h-194l-121 305h-680l-121 -305h-195zM348 1786h160l303 -295h-117zM385 455h580l-291 737z" />
    <glyph glyph-name="Aacute" unicode="&#xc1;" horiz-adv-x="1347" 
d="M18 0l551 1366h211l549 -1366h-194l-121 305h-680l-121 -305h-195zM385 455h580l-291 737zM541 1491l303 295h160l-347 -295h-116z" />
    <glyph glyph-name="Acircumflex" unicode="&#xc2;" horiz-adv-x="1347" 
d="M18 0l551 1366h211l549 -1366h-194l-121 305h-680l-121 -305h-195zM385 455h580l-291 737zM406 1491l194 295h148l200 -295h-104l-170 217l-164 -217h-104z" />
    <glyph glyph-name="Atilde" unicode="&#xc3;" horiz-adv-x="1347" 
d="M18 0l551 1366h211l549 -1366h-194l-121 305h-680l-121 -305h-195zM354 1499q0 123 52.5 199t146.5 76q34 0 62.5 -14t46.5 -35t35.5 -45.5t31.5 -45.5t33.5 -35t42.5 -14q44 0 71 44t27 132h92q0 -123 -52 -198.5t-146 -75.5q-41 0 -73 19.5t-52 47t-38 55t-40 47
t-49 19.5q-44 0 -71.5 -44t-27.5 -132h-92zM385 455h580l-291 737z" />
    <glyph glyph-name="Adieresis" unicode="&#xc4;" horiz-adv-x="1347" 
d="M18 0l551 1366h211l549 -1366h-194l-121 305h-680l-121 -305h-195zM369 1583q0 40 28 67t68 27q39 0 66.5 -27.5t27.5 -66.5q0 -38 -28 -66t-66 -28q-40 0 -68 28t-28 66zM385 455h580l-291 737zM793 1583q0 39 27.5 66.5t66.5 27.5q40 0 68 -27t28 -67q0 -38 -28 -66
t-68 -28q-38 0 -66 28t-28 66z" />
    <glyph glyph-name="Aring" unicode="&#xc5;" horiz-adv-x="1347" 
d="M18 0l551 1366h211l549 -1366h-194l-121 305h-680l-121 -305h-195zM385 455h580l-291 737zM473 1620q0 83 60 143t143 60t140.5 -59.5t57.5 -143.5t-57.5 -143.5t-140.5 -59.5t-143 60t-60 143zM555 1620q0 -50 35 -85.5t86 -35.5q49 0 84 35.5t35 85.5t-35 85.5
t-84 35.5q-51 0 -86 -35.5t-35 -85.5z" />
    <glyph glyph-name="AE" unicode="&#xc6;" horiz-adv-x="1941" 
d="M14 0l852 1366h963v-152h-725v-440h711v-151h-711v-471h725v-152h-895v305h-537l-188 -305h-195zM479 455h455v737z" />
    <glyph glyph-name="Ccedilla" unicode="&#xc7;" horiz-adv-x="1384" 
d="M104 682q0 154 55 287t149 224.5t223.5 143.5t275.5 52q329 0 518 -271l-141 -80q-60 90 -161 144.5t-216 54.5q-226 0 -376 -155.5t-150 -399.5q0 -159 69 -286.5t189 -198t268 -70.5q114 0 215.5 55t161.5 144l143 -78q-194 -265 -500 -273l-30 -79q27 22 75 22
q59 0 97.5 -37.5t38.5 -99.5q0 -74 -61 -119t-152 -45q-63 0 -118.5 17.5t-88.5 43.5l39 78q73 -59 164 -59q53 0 88.5 23t35.5 63q0 33 -19 52.5t-56 19.5q-51 0 -78 -35l-68 39l43 121q-134 12 -250.5 68t-201 146t-133 216.5t-48.5 271.5z" />
    <glyph glyph-name="Egrave" unicode="&#xc8;" horiz-adv-x="1165" 
d="M160 0v1366h895v-152h-725v-440h710v-151h-710v-471h725v-152h-895zM281 1786h159l303 -295h-116z" />
    <glyph glyph-name="Eacute" unicode="&#xc9;" horiz-adv-x="1165" 
d="M160 0v1366h895v-152h-725v-440h710v-151h-710v-471h725v-152h-895zM471 1491l303 295h160l-346 -295h-117z" />
    <glyph glyph-name="Ecircumflex" unicode="&#xca;" horiz-adv-x="1165" 
d="M160 0v1366h895v-152h-725v-440h710v-151h-710v-471h725v-152h-895zM334 1491l194 295h148l201 -295h-105l-170 217l-164 -217h-104z" />
    <glyph glyph-name="Edieresis" unicode="&#xcb;" horiz-adv-x="1165" 
d="M160 0v1366h895v-152h-725v-440h710v-151h-710v-471h725v-152h-895zM299 1583q0 40 28 67t68 27q39 0 66.5 -27.5t27.5 -66.5q0 -38 -28 -66t-66 -28q-40 0 -68 28t-28 66zM723 1583q0 39 27.5 66.5t66.5 27.5q40 0 68 -27t28 -67q0 -38 -28 -66t-68 -28q-38 0 -66 28
t-28 66z" />
    <glyph glyph-name="Igrave" unicode="&#xcc;" horiz-adv-x="489" 
d="M-84 1786h160l303 -295h-117zM160 0v1366h170v-1366h-170z" />
    <glyph glyph-name="Iacute" unicode="&#xcd;" horiz-adv-x="489" 
d="M113 1491l303 295h159l-346 -295h-116zM160 0v1366h170v-1366h-170z" />
    <glyph glyph-name="Icircumflex" unicode="&#xce;" horiz-adv-x="489" 
d="M-27 1491l195 295h147l201 -295h-104l-170 217l-164 -217h-105zM160 0v1366h170v-1366h-170z" />
    <glyph glyph-name="Idieresis" unicode="&#xcf;" horiz-adv-x="489" 
d="M-63 1583q0 40 28 67t68 27q39 0 66.5 -27.5t27.5 -66.5q0 -38 -28 -66t-66 -28q-40 0 -68 28t-28 66zM160 0v1366h170v-1366h-170zM360 1583q0 39 28 66.5t67 27.5q40 0 68 -27t28 -67q0 -38 -28 -66t-68 -28q-38 0 -66.5 28t-28.5 66z" />
    <glyph glyph-name="Eth" unicode="&#xd0;" horiz-adv-x="1490" 
d="M20 612v125h197v629h467q208 0 369 -90.5t246 -245.5t85 -348q0 -145 -50 -270.5t-140 -216.5t-221.5 -143t-288.5 -52h-467v612h-197zM387 152h297q161 0 282 72t181.5 191t60.5 267q0 150 -59.5 269t-180 191t-284.5 72h-297v-477h346v-125h-346v-460z" />
    <glyph glyph-name="Ntilde" unicode="&#xd1;" horiz-adv-x="1449" 
d="M160 0v1366h174l786 -1067v1067h170v-1366h-164l-796 1090v-1090h-170zM401 1499q0 123 52.5 199t146.5 76q34 0 62.5 -14t46.5 -35t35.5 -45.5t31.5 -45.5t33.5 -35t42.5 -14q44 0 71 44t27 132h92q0 -123 -52 -198.5t-146 -75.5q-41 0 -73 19.5t-52 47t-38 55t-40 47
t-49 19.5q-44 0 -71 -44t-27 -132h-93z" />
    <glyph glyph-name="Ograve" unicode="&#xd2;" horiz-adv-x="1566" 
d="M104 682q0 200 84.5 361t240 253.5t353.5 92.5t354 -92.5t241 -253.5t85 -361t-85 -361t-241 -253.5t-354 -92.5t-353.5 92.5t-240 253.5t-84.5 361zM281 682q0 -158 60.5 -284t175.5 -198.5t265 -72.5t265.5 72.5t177 198.5t61.5 284q0 242 -139 398.5t-365 156.5
q-227 0 -364 -156t-137 -399zM463 1786h160l303 -295h-117z" />
    <glyph glyph-name="Oacute" unicode="&#xd3;" horiz-adv-x="1566" 
d="M104 682q0 200 84.5 361t240 253.5t353.5 92.5t354 -92.5t241 -253.5t85 -361t-85 -361t-241 -253.5t-354 -92.5t-353.5 92.5t-240 253.5t-84.5 361zM281 682q0 -158 60.5 -284t175.5 -198.5t265 -72.5t265.5 72.5t177 198.5t61.5 284q0 242 -139 398.5t-365 156.5
q-227 0 -364 -156t-137 -399zM651 1491l303 295h160l-346 -295h-117z" />
    <glyph glyph-name="Ocircumflex" unicode="&#xd4;" horiz-adv-x="1566" 
d="M104 682q0 200 84.5 361t240 253.5t353.5 92.5t354 -92.5t241 -253.5t85 -361t-85 -361t-241 -253.5t-354 -92.5t-353.5 92.5t-240 253.5t-84.5 361zM281 682q0 -158 60.5 -284t175.5 -198.5t265 -72.5t265.5 72.5t177 198.5t61.5 284q0 242 -139 398.5t-365 156.5
q-227 0 -364 -156t-137 -399zM516 1491l195 295h147l201 -295h-105l-170 217l-163 -217h-105z" />
    <glyph glyph-name="Otilde" unicode="&#xd5;" horiz-adv-x="1566" 
d="M104 682q0 200 84.5 361t240 253.5t353.5 92.5t354 -92.5t241 -253.5t85 -361t-85 -361t-241 -253.5t-354 -92.5t-353.5 92.5t-240 253.5t-84.5 361zM281 682q0 -158 60.5 -284t175.5 -198.5t265 -72.5t265.5 72.5t177 198.5t61.5 284q0 242 -139 398.5t-365 156.5
q-227 0 -364 -156t-137 -399zM463 1499q0 123 52.5 199t146.5 76q41 0 72.5 -19.5t51.5 -47t38 -55.5t40 -47.5t49 -19.5q44 0 71.5 44t27.5 132h92q0 -123 -52.5 -198.5t-146.5 -75.5q-41 0 -73 19.5t-52 47t-38 55t-40 47t-49 19.5q-44 0 -71 -44t-27 -132h-92z" />
    <glyph glyph-name="Odieresis" unicode="&#xd6;" horiz-adv-x="1566" 
d="M104 682q0 200 84.5 361t240 253.5t353.5 92.5t354 -92.5t241 -253.5t85 -361t-85 -361t-241 -253.5t-354 -92.5t-353.5 92.5t-240 253.5t-84.5 361zM281 682q0 -158 60.5 -284t175.5 -198.5t265 -72.5t265.5 72.5t177 198.5t61.5 284q0 242 -139 398.5t-365 156.5
q-227 0 -364 -156t-137 -399zM475 1583q0 40 28 67t68 27q39 0 67 -27.5t28 -66.5q0 -38 -28.5 -66t-66.5 -28q-40 0 -68 28t-28 66zM899 1583q0 39 27.5 66.5t66.5 27.5q40 0 68.5 -27.5t28.5 -66.5q0 -38 -28.5 -66t-68.5 -28q-38 0 -66 28t-28 66z" />
    <glyph glyph-name="multiply" unicode="&#xd7;" horiz-adv-x="1021" 
d="M131 379l305 305l-305 305l76 76l303 -305l305 305l76 -76l-303 -305l303 -305l-76 -76l-305 305l-303 -305z" />
    <glyph glyph-name="Oslash" unicode="&#xd8;" horiz-adv-x="1566" 
d="M104 682q0 200 84.5 361t240 253.5t353.5 92.5q189 0 342 -86l43 63h138l-86 -129q115 -96 179 -240.5t64 -314.5q0 -200 -85 -361t-241 -253.5t-354 -92.5q-194 0 -352 93l-45 -68h-137l90 133q-111 96 -172.5 238t-61.5 311zM281 682q0 -257 149 -412l606 901
q-116 66 -254 66q-227 0 -364 -156t-137 -399zM518 199q113 -72 264 -72q150 0 265.5 72.5t177 198.5t61.5 284q0 128 -41.5 236.5t-118.5 183.5z" />
    <glyph glyph-name="Ugrave" unicode="&#xd9;" horiz-adv-x="1435" 
d="M160 530v836h172v-831q0 -191 99.5 -299.5t285.5 -108.5t286.5 109t100.5 299v831h172v-834q0 -261 -143 -409t-416 -148q-271 0 -414 148.5t-143 406.5zM393 1786h160l303 -295h-117z" />
    <glyph glyph-name="Uacute" unicode="&#xda;" horiz-adv-x="1435" 
d="M160 530v836h172v-831q0 -191 99.5 -299.5t285.5 -108.5t286.5 109t100.5 299v831h172v-834q0 -261 -143 -409t-416 -148q-271 0 -414 148.5t-143 406.5zM582 1491l303 295h159l-346 -295h-116z" />
    <glyph glyph-name="Ucircumflex" unicode="&#xdb;" horiz-adv-x="1435" 
d="M160 530v836h172v-831q0 -191 99.5 -299.5t285.5 -108.5t286.5 109t100.5 299v831h172v-834q0 -261 -143 -409t-416 -148q-271 0 -414 148.5t-143 406.5zM457 1491l194 295h148l200 -295h-104l-170 217l-164 -217h-104z" />
    <glyph glyph-name="Udieresis" unicode="&#xdc;" horiz-adv-x="1435" 
d="M160 530v836h172v-831q0 -191 99.5 -299.5t285.5 -108.5t286.5 109t100.5 299v831h172v-834q0 -261 -143 -409t-416 -148q-271 0 -414 148.5t-143 406.5zM412 1583q0 40 28 67t68 27q39 0 66.5 -27.5t27.5 -66.5q0 -38 -28 -66t-66 -28q-40 0 -68 28t-28 66zM836 1583
q0 39 27.5 66.5t66.5 27.5q40 0 68 -27t28 -67q0 -38 -28 -66t-68 -28q-38 0 -66 28t-28 66z" />
    <glyph glyph-name="Yacute" unicode="&#xdd;" horiz-adv-x="1282" 
d="M18 1366h199l424 -635l424 635h199l-537 -788v-578h-170v578zM514 1491l303 295h160l-346 -295h-117z" />
    <glyph glyph-name="Thorn" unicode="&#xde;" horiz-adv-x="1202" 
d="M160 0v1366h170v-244h379q198 0 313 -119t115 -294q0 -174 -115.5 -292t-312.5 -118h-379v-299h-170zM330 451h358q122 0 197.5 71.5t75.5 186.5q0 116 -76 189t-197 73h-358v-520z" />
    <glyph glyph-name="germandbls" unicode="&#xdf;" horiz-adv-x="1222" 
d="M156 0v1022q0 155 106.5 259.5t282.5 104.5q147 0 252.5 -71t105.5 -187q0 -45 -17 -83t-44 -64t-59.5 -49.5t-65.5 -44.5t-60 -42.5t-44 -50.5t-17 -63q0 -43 32.5 -71.5t84.5 -45t114.5 -30.5t125 -35t114.5 -51.5t84.5 -87t32.5 -134.5q0 -128 -99 -214.5t-282 -86.5
q-134 0 -219 41.5t-162 118.5l78 107q46 -61 125.5 -100.5t177.5 -39.5q112 0 171.5 49.5t59.5 120.5q0 48 -32.5 81t-84.5 51.5t-114.5 34t-125 36t-114.5 49t-84.5 81.5t-32.5 126q0 61 31 110.5t75 81.5t87.5 60t74.5 60.5t31 68.5q0 63 -61.5 100t-140.5 37
q-100 0 -167 -62t-67 -165v-1022h-153z" />
    <glyph glyph-name="agrave" unicode="&#xe0;" horiz-adv-x="1081" 
d="M100 303q0 80 30 144.5t79.5 103t109.5 58.5t125 20q210 0 328 -133v178q0 96 -70 151.5t-180 55.5q-176 0 -303 -138l-72 107q157 164 396 164q82 0 149.5 -19t120.5 -57.5t83 -104.5t30 -153v-680h-154v113q-123 -138 -328 -138q-63 0 -123.5 21.5t-110.5 61.5
t-80 103.5t-30 141.5zM217 1434h160l303 -295h-117zM256 303q0 -95 68.5 -156t177.5 -61q82 0 154.5 31.5t115.5 91.5v188q-43 58 -115.5 89.5t-154.5 31.5q-108 0 -177 -60.5t-69 -154.5z" />
    <glyph glyph-name="aacute" unicode="&#xe1;" horiz-adv-x="1081" 
d="M100 303q0 80 30 144.5t79.5 103t109.5 58.5t125 20q210 0 328 -133v178q0 96 -70 151.5t-180 55.5q-176 0 -303 -138l-72 107q157 164 396 164q82 0 149.5 -19t120.5 -57.5t83 -104.5t30 -153v-680h-154v113q-123 -138 -328 -138q-63 0 -123.5 21.5t-110.5 61.5
t-80 103.5t-30 141.5zM256 303q0 -95 68.5 -156t177.5 -61q82 0 154.5 31.5t115.5 91.5v188q-43 58 -115.5 89.5t-154.5 31.5q-108 0 -177 -60.5t-69 -154.5zM412 1139l303 295h159l-346 -295h-116z" />
    <glyph glyph-name="acircumflex" unicode="&#xe2;" horiz-adv-x="1081" 
d="M100 303q0 80 30 144.5t79.5 103t109.5 58.5t125 20q210 0 328 -133v178q0 96 -70 151.5t-180 55.5q-176 0 -303 -138l-72 107q157 164 396 164q82 0 149.5 -19t120.5 -57.5t83 -104.5t30 -153v-680h-154v113q-123 -138 -328 -138q-63 0 -123.5 21.5t-110.5 61.5
t-80 103.5t-30 141.5zM256 303q0 -95 68.5 -156t177.5 -61q82 0 154.5 31.5t115.5 91.5v188q-43 58 -115.5 89.5t-154.5 31.5q-108 0 -177 -60.5t-69 -154.5zM279 1139l194 295h148l200 -295h-104l-170 217l-164 -217h-104z" />
    <glyph glyph-name="atilde" unicode="&#xe3;" horiz-adv-x="1081" 
d="M100 303q0 80 30 144.5t79.5 103t109.5 58.5t125 20q210 0 328 -133v178q0 96 -70 151.5t-180 55.5q-176 0 -303 -138l-72 107q157 164 396 164q82 0 149.5 -19t120.5 -57.5t83 -104.5t30 -153v-680h-154v113q-123 -138 -328 -138q-63 0 -123.5 21.5t-110.5 61.5
t-80 103.5t-30 141.5zM223 1147q0 123 52.5 198.5t146.5 75.5q41 0 73 -19.5t52 -47t38 -55t40 -47t49 -19.5q44 0 71 44t27 132h92q0 -123 -52 -198.5t-146 -75.5q-41 0 -73 19.5t-52 47t-38 55t-40 47t-49 19.5q-44 0 -71.5 -44t-27.5 -132h-92zM256 303q0 -95 68.5 -156
t177.5 -61q82 0 154.5 31.5t115.5 91.5v188q-43 58 -115.5 89.5t-154.5 31.5q-108 0 -177 -60.5t-69 -154.5z" />
    <glyph glyph-name="adieresis" unicode="&#xe4;" horiz-adv-x="1081" 
d="M100 303q0 80 30 144.5t79.5 103t109.5 58.5t125 20q210 0 328 -133v178q0 96 -70 151.5t-180 55.5q-176 0 -303 -138l-72 107q157 164 396 164q82 0 149.5 -19t120.5 -57.5t83 -104.5t30 -153v-680h-154v113q-123 -138 -328 -138q-63 0 -123.5 21.5t-110.5 61.5
t-80 103.5t-30 141.5zM233 1237q0 39 28.5 66.5t68.5 27.5q39 0 66.5 -27.5t27.5 -66.5q0 -38 -28 -66t-66 -28q-40 0 -68.5 28t-28.5 66zM256 303q0 -95 68.5 -156t177.5 -61q82 0 154.5 31.5t115.5 91.5v188q-43 58 -115.5 89.5t-154.5 31.5q-108 0 -177 -60.5t-69 -154.5
zM657 1237q0 39 28 66.5t67 27.5q40 0 68 -27t28 -67q0 -38 -28 -66t-68 -28q-38 0 -66.5 28t-28.5 66z" />
    <glyph glyph-name="aring" unicode="&#xe5;" horiz-adv-x="1081" 
d="M100 303q0 80 30 144.5t79.5 103t109.5 58.5t125 20q210 0 328 -133v178q0 96 -70 151.5t-180 55.5q-176 0 -303 -138l-72 107q157 164 396 164q82 0 149.5 -19t120.5 -57.5t83 -104.5t30 -153v-680h-154v113q-123 -138 -328 -138q-63 0 -123.5 21.5t-110.5 61.5
t-80 103.5t-30 141.5zM256 303q0 -95 68.5 -156t177.5 -61q82 0 154.5 31.5t115.5 91.5v188q-43 58 -115.5 89.5t-154.5 31.5q-108 0 -177 -60.5t-69 -154.5zM342 1323q0 83 60 143t143 60t140.5 -59.5t57.5 -143.5t-57.5 -143.5t-140.5 -59.5t-143 60t-60 143zM424 1323
q0 -50 35 -85.5t86 -35.5q49 0 84 35.5t35 85.5t-35 85.5t-84 35.5q-51 0 -86 -35.5t-35 -85.5z" />
    <glyph glyph-name="ae" unicode="&#xe6;" horiz-adv-x="1820" 
d="M100 303q0 153 100.5 239.5t243.5 86.5q209 0 328 -131v176q0 96 -70 151.5t-180 55.5q-176 0 -303 -138l-72 107q157 164 396 164q139 0 225 -55t111 -162q56 98 150.5 157.5t227.5 59.5q214 0 341.5 -151t127.5 -380v-39h-798q9 -145 104 -241.5t250 -96.5
q87 0 167.5 32t139.5 93l74 -102q-157 -154 -393 -154q-263 0 -410 205q-62 -87 -163 -146t-244 -59q-66 0 -128.5 21.5t-113 61.5t-81 103.5t-30.5 141.5zM256 303q0 -95 68.5 -156t177.5 -61q57 0 109 15t104.5 55.5t87.5 103.5q-31 75 -31 133q-43 60 -115.5 92.5
t-154.5 32.5q-108 0 -177 -60.5t-69 -154.5zM926 559h649q-1 57 -21 113t-58 105t-102 79.5t-145 30.5q-76 0 -138 -30t-100.5 -78.5t-60 -105t-24.5 -114.5z" />
    <glyph glyph-name="ccedilla" unicode="&#xe7;" horiz-adv-x="1015" 
d="M96 496q0 146 61.5 263.5t174.5 186t258 68.5q229 0 362 -172l-102 -92q-93 127 -252 127q-155 0 -248.5 -107t-93.5 -274t94 -275t248 -108q155 0 252 129l102 -95q-119 -157 -323 -170l-33 -86q29 23 76 23q59 0 97 -37.5t38 -99.5q0 -74 -61 -119t-152 -45
q-63 0 -118.5 17.5t-88.5 43.5l39 78q73 -59 164 -59q53 0 89 23t36 63q0 33 -19.5 52t-56.5 19q-51 0 -78 -34l-67 39l45 125q-198 17 -320.5 162t-122.5 354z" />
    <glyph glyph-name="egrave" unicode="&#xe8;" horiz-adv-x="1153" 
d="M96 496q0 142 62.5 260.5t174.5 188t251 69.5q146 0 255 -71t164.5 -190.5t55.5 -269.5v-39h-799q9 -146 104.5 -244t249.5 -98q87 0 167.5 33t140.5 94l73 -100q-157 -154 -393 -154q-222 0 -364 145t-142 376zM258 559h649q-1 57 -20.5 113t-57.5 105t-102 79.5
t-145 30.5q-76 0 -138 -30t-100.5 -78.5t-60.5 -105t-25 -114.5zM258 1434h160l303 -295h-117z" />
    <glyph glyph-name="eacute" unicode="&#xe9;" horiz-adv-x="1153" 
d="M96 496q0 142 62.5 260.5t174.5 188t251 69.5q146 0 255 -71t164.5 -190.5t55.5 -269.5v-39h-799q9 -146 104.5 -244t249.5 -98q87 0 167.5 33t140.5 94l73 -100q-157 -154 -393 -154q-222 0 -364 145t-142 376zM258 559h649q-1 57 -20.5 113t-57.5 105t-102 79.5
t-145 30.5q-76 0 -138 -30t-100.5 -78.5t-60.5 -105t-25 -114.5zM451 1139l303 295h159l-346 -295h-116z" />
    <glyph glyph-name="ecircumflex" unicode="&#xea;" horiz-adv-x="1153" 
d="M96 496q0 142 62.5 260.5t174.5 188t251 69.5q146 0 255 -71t164.5 -190.5t55.5 -269.5v-39h-799q9 -146 104.5 -244t249.5 -98q87 0 167.5 33t140.5 94l73 -100q-157 -154 -393 -154q-222 0 -364 145t-142 376zM258 559h649q-1 57 -20.5 113t-57.5 105t-102 79.5
t-145 30.5q-76 0 -138 -30t-100.5 -78.5t-60.5 -105t-25 -114.5zM315 1139l195 295h147l201 -295h-104l-170 217l-164 -217h-105z" />
    <glyph glyph-name="edieresis" unicode="&#xeb;" horiz-adv-x="1153" 
d="M96 496q0 142 62.5 260.5t174.5 188t251 69.5q146 0 255 -71t164.5 -190.5t55.5 -269.5v-39h-799q9 -146 104.5 -244t249.5 -98q87 0 167.5 33t140.5 94l73 -100q-157 -154 -393 -154q-222 0 -364 145t-142 376zM258 559h649q-1 57 -20.5 113t-57.5 105t-102 79.5
t-145 30.5q-76 0 -138 -30t-100.5 -78.5t-60.5 -105t-25 -114.5zM279 1237q0 40 28 67t68 27q39 0 66.5 -27.5t27.5 -66.5q0 -38 -28 -66t-66 -28q-40 0 -68 28t-28 66zM702 1237q0 39 28 66.5t67 27.5q40 0 68 -27t28 -67q0 -38 -28 -66t-68 -28q-38 0 -66.5 28t-28.5 66z
" />
    <glyph glyph-name="igrave" unicode="&#xec;" horiz-adv-x="460" 
d="M-98 1434h159l304 -295h-117zM154 0v989h153v-989h-153z" />
    <glyph glyph-name="iacute" unicode="&#xed;" horiz-adv-x="460" 
d="M96 1139l303 295h160l-346 -295h-117zM154 0v989h153v-989h-153z" />
    <glyph glyph-name="icircumflex" unicode="&#xee;" horiz-adv-x="460" 
d="M-39 1139l195 295h147l201 -295h-105l-170 217l-163 -217h-105zM154 0v989h153v-989h-153z" />
    <glyph glyph-name="idieresis" unicode="&#xef;" horiz-adv-x="460" 
d="M-76 1237q0 40 28 67t68 27q39 0 67 -27.5t28 -66.5q0 -38 -28.5 -66t-66.5 -28q-40 0 -68 28t-28 66zM154 0v989h153v-989h-153zM348 1237q0 39 27.5 66.5t66.5 27.5q40 0 68.5 -27.5t28.5 -66.5q0 -38 -28.5 -66t-68.5 -28q-38 0 -66 28t-28 66z" />
    <glyph glyph-name="eth" unicode="&#xf0;" 
d="M96 479q0 216 127 359t324 143q200 0 323 -180q-104 186 -327 348l-293 -131l-37 86l242 106q-29 19 -85 55t-69 44l84 127q125 -77 229 -156l222 98l34 -84l-176 -77q381 -324 381 -711q0 -233 -133.5 -382t-355.5 -149q-218 0 -354 143t-136 361zM258 479
q0 -154 88 -260t240 -106t239.5 106t87.5 260q0 98 -37 180t-112.5 133.5t-177.5 51.5q-152 0 -240 -106.5t-88 -258.5z" />
    <glyph glyph-name="ntilde" unicode="&#xf1;" horiz-adv-x="1130" 
d="M160 0v989h153v-143q58 69 154 118.5t201 49.5q313 0 313 -320v-694h-152v647q0 125 -58 177.5t-165 52.5q-86 0 -165.5 -45t-127.5 -109v-723h-153zM246 1147q0 123 52 198.5t146 75.5q41 0 73 -19.5t52 -47t38 -55t40 -47t49 -19.5q44 0 71.5 44t27.5 132h92
q0 -123 -52.5 -198.5t-146.5 -75.5q-41 0 -73 19.5t-52 47t-38 55t-40 47t-49 19.5q-44 0 -71 -44t-27 -132h-92z" />
    <glyph glyph-name="ograve" unicode="&#xf2;" 
d="M96 496q0 144 59 261t171.5 187t259.5 70t259.5 -70t171 -187t58.5 -261t-58.5 -262t-171 -188.5t-259.5 -70.5t-259.5 70.5t-171.5 188.5t-59 262zM258 496q0 -160 88 -271.5t240 -111.5q102 0 177.5 54t112.5 139.5t37 189.5q0 103 -37 188t-112.5 139t-177.5 54
t-178 -54t-113 -139.5t-37 -187.5zM258 1434h160l303 -295h-117z" />
    <glyph glyph-name="oacute" unicode="&#xf3;" 
d="M96 496q0 144 59 261t171.5 187t259.5 70t259.5 -70t171 -187t58.5 -261t-58.5 -262t-171 -188.5t-259.5 -70.5t-259.5 70.5t-171.5 188.5t-59 262zM258 496q0 -160 88 -271.5t240 -111.5q102 0 177.5 54t112.5 139.5t37 189.5q0 103 -37 188t-112.5 139t-177.5 54
t-178 -54t-113 -139.5t-37 -187.5zM451 1139l303 295h159l-346 -295h-116z" />
    <glyph glyph-name="ocircumflex" unicode="&#xf4;" 
d="M96 496q0 144 59 261t171.5 187t259.5 70t259.5 -70t171 -187t58.5 -261t-58.5 -262t-171 -188.5t-259.5 -70.5t-259.5 70.5t-171.5 188.5t-59 262zM258 496q0 -160 88 -271.5t240 -111.5q102 0 177.5 54t112.5 139.5t37 189.5q0 103 -37 188t-112.5 139t-177.5 54
t-178 -54t-113 -139.5t-37 -187.5zM317 1139l195 295h147l201 -295h-104l-170 217l-164 -217h-105z" />
    <glyph glyph-name="otilde" unicode="&#xf5;" 
d="M96 496q0 144 59 261t171.5 187t259.5 70t259.5 -70t171 -187t58.5 -261t-58.5 -262t-171 -188.5t-259.5 -70.5t-259.5 70.5t-171.5 188.5t-59 262zM258 496q0 -160 88 -271.5t240 -111.5q102 0 177.5 54t112.5 139.5t37 189.5q0 103 -37 188t-112.5 139t-177.5 54
t-178 -54t-113 -139.5t-37 -187.5zM266 1147q0 123 52.5 198.5t146.5 75.5q41 0 73 -19.5t52 -47t38 -55t40 -47t49 -19.5q44 0 71 44t27 132h92q0 -123 -52 -198.5t-146 -75.5q-41 0 -73 19.5t-52 47t-38 55t-40 47t-49 19.5q-44 0 -71.5 -44t-27.5 -132h-92z" />
    <glyph glyph-name="odieresis" unicode="&#xf6;" 
d="M96 496q0 144 59 261t171.5 187t259.5 70t259.5 -70t171 -187t58.5 -261t-58.5 -262t-171 -188.5t-259.5 -70.5t-259.5 70.5t-171.5 188.5t-59 262zM258 496q0 -160 88 -271.5t240 -111.5q102 0 177.5 54t112.5 139.5t37 189.5q0 103 -37 188t-112.5 139t-177.5 54
t-178 -54t-113 -139.5t-37 -187.5zM279 1237q0 40 28 67t68 27q39 0 66.5 -27.5t27.5 -66.5q0 -38 -28 -66t-66 -28q-40 0 -68 28t-28 66zM702 1237q0 39 28 66.5t67 27.5q40 0 68 -27t28 -67q0 -38 -28 -66t-68 -28q-38 0 -66.5 28t-28.5 66z" />
    <glyph glyph-name="divide" unicode="&#xf7;" horiz-adv-x="1046" 
d="M59 637v106h928v-106h-928zM430 295q0 38 28 66t66 28t66 -28t28 -66t-28 -66t-66 -28t-66 28t-28 66zM430 1079q0 38 28 65t66 27t66 -27t28 -65q0 -40 -28 -68t-66 -28t-66 28t-28 68z" />
    <glyph glyph-name="oslash" unicode="&#xf8;" 
d="M96 496q0 144 59 261t171.5 187t259.5 70q160 0 280 -84l47 59h113l-92 -117q68 -71 104.5 -168.5t36.5 -207.5q0 -144 -58.5 -262t-171 -188.5t-259.5 -70.5q-168 0 -291 93l-53 -68h-111l98 125q-133 145 -133 371zM258 496q0 -147 70 -248l446 567q-78 62 -188 62
q-102 0 -178 -54t-113 -139.5t-37 -187.5zM385 182q81 -69 201 -69q102 0 177.5 54t112.5 139.5t37 189.5q0 151 -77 254z" />
    <glyph glyph-name="ugrave" unicode="&#xf9;" horiz-adv-x="1128" 
d="M154 291v698h153v-651q0 -124 57 -174.5t166 -50.5q86 0 166 43t125 106v727h154v-989h-154v139q-62 -70 -155 -117t-197 -47q-315 0 -315 316zM242 1434h159l304 -295h-117z" />
    <glyph glyph-name="uacute" unicode="&#xfa;" horiz-adv-x="1128" 
d="M154 291v698h153v-651q0 -124 57 -174.5t166 -50.5q86 0 166 43t125 106v727h154v-989h-154v139q-62 -70 -155 -117t-197 -47q-315 0 -315 316zM432 1139l303 295h160l-346 -295h-117z" />
    <glyph glyph-name="ucircumflex" unicode="&#xfb;" horiz-adv-x="1128" 
d="M154 291v698h153v-651q0 -124 57 -174.5t166 -50.5q86 0 166 43t125 106v727h154v-989h-154v139q-62 -70 -155 -117t-197 -47q-315 0 -315 316zM295 1139l194 295h148l201 -295h-105l-170 217l-164 -217h-104z" />
    <glyph glyph-name="udieresis" unicode="&#xfc;" horiz-adv-x="1128" 
d="M154 291v698h153v-651q0 -124 57 -174.5t166 -50.5q86 0 166 43t125 106v727h154v-989h-154v139q-62 -70 -155 -117t-197 -47q-315 0 -315 316zM264 1237q0 40 28 67t68 27q39 0 67 -27.5t28 -66.5q0 -38 -28.5 -66t-66.5 -28q-40 0 -68 28t-28 66zM688 1237
q0 39 27.5 66.5t66.5 27.5q40 0 68.5 -27.5t28.5 -66.5q0 -38 -28.5 -66t-68.5 -28q-38 0 -66 28t-28 66z" />
    <glyph glyph-name="yacute" unicode="&#xfd;" horiz-adv-x="1003" 
d="M6 989h168l328 -811l329 811h166l-495 -1190q-81 -197 -291 -200q-64 0 -111 14l23 139q37 -16 84 -16q54 0 88 22.5t59 81.5l66 150zM369 1139l303 295h159l-346 -295h-116z" />
    <glyph glyph-name="thorn" unicode="&#xfe;" 
d="M154 -377v1743h153v-524q56 78 144.5 125t189.5 47q197 0 318.5 -139.5t121.5 -378.5q0 -237 -121.5 -379t-318.5 -142q-100 0 -185.5 46t-148.5 129v-527h-153zM307 272q41 -67 124 -113t171 -46q146 0 232 107.5t86 275.5t-86 274.5t-232 106.5q-88 0 -171 -46
t-124 -112v-447z" />
    <glyph glyph-name="ydieresis" unicode="&#xff;" horiz-adv-x="1003" 
d="M6 989h168l328 -811l329 811h166l-495 -1190q-81 -197 -291 -200q-64 0 -111 14l23 139q37 -16 84 -16q54 0 88 22.5t59 81.5l66 150zM195 1237q0 40 28 67t68 27q39 0 66.5 -27.5t27.5 -66.5q0 -38 -28 -66t-66 -28q-40 0 -68 28t-28 66zM618 1237q0 39 28 66.5t67 27.5
q40 0 68 -27t28 -67q0 -38 -28 -66t-68 -28q-38 0 -66.5 28t-28.5 66z" />
    <glyph glyph-name="OE" unicode="&#x152;" horiz-adv-x="2263" 
d="M104 682q0 200 82.5 360.5t234.5 252t347 91.5q150 0 282.5 -69.5t206.5 -198.5v248h895v-152h-725v-440h711v-151h-711v-471h725v-152h-895v248q-74 -131 -206.5 -202t-282.5 -71q-195 0 -347 92.5t-234.5 253.5t-82.5 361zM281 682q0 -118 35.5 -220t100 -176.5
t160.5 -116.5t211 -42q160 0 284.5 85.5t184.5 246.5v448q-60 160 -184 244t-285 84q-231 0 -369 -155t-138 -398z" />
    <glyph glyph-name="oe" unicode="&#x153;" horiz-adv-x="1970" 
d="M96 496q0 144 59 261t171.5 187t259.5 70q87 0 160 -28.5t121.5 -75.5t78 -90t49.5 -89q19 46 50.5 91t80 90.5t120 73.5t155.5 28q146 0 255 -71t164.5 -190.5t55.5 -269.5v-39h-799q9 -145 105.5 -243.5t249.5 -98.5q87 0 167 33t140 94l73 -100q-157 -154 -393 -154
q-90 0 -165 27t-125.5 72.5t-82 89.5t-53.5 94q-17 -38 -37.5 -72t-56.5 -74.5t-77.5 -69t-103.5 -48t-132 -19.5q-147 0 -259.5 70.5t-171.5 188.5t-59 262zM258 496q0 -163 89 -274t239 -111t238.5 111t88.5 274q0 162 -88.5 271.5t-238.5 109.5t-239 -110t-89 -271z
M1075 559h651q-1 45 -13.5 90t-38.5 88t-63 76t-91.5 53.5t-118.5 20.5q-76 0 -139 -30t-101.5 -78.5t-60.5 -105t-25 -114.5z" />
    <glyph glyph-name="Ydieresis" unicode="&#x178;" horiz-adv-x="1282" 
d="M18 1366h199l424 -635l424 635h199l-537 -788v-578h-170v578zM340 1583q0 40 28 67t68 27q39 0 66.5 -27.5t27.5 -66.5q0 -38 -28 -66t-66 -28q-40 0 -68 28t-28 66zM764 1583q0 39 27.5 66.5t66.5 27.5q40 0 68 -27t28 -67q0 -38 -28 -66t-68 -28q-38 0 -66 28t-28 66z
" />
    <glyph glyph-name="circumflex" unicode="&#x2c6;" horiz-adv-x="542" 
d="M0 1139l195 295h147l201 -295h-105l-170 217l-164 -217h-104z" />
    <glyph glyph-name="tilde" unicode="&#x2dc;" horiz-adv-x="641" 
d="M0 1147q0 123 52.5 198.5t146.5 75.5q41 0 73 -19.5t52 -47t38 -55t40 -47t49 -19.5q44 0 71 44t27 132h92q0 -123 -52.5 -198.5t-146.5 -75.5q-41 0 -73 19.5t-52 47t-38 55t-40 47t-49 19.5q-44 0 -71 -44t-27 -132h-92z" />
    <glyph glyph-name="uni2000" unicode="&#x2000;" horiz-adv-x="911" 
 />
    <glyph glyph-name="uni2001" unicode="&#x2001;" horiz-adv-x="1823" 
 />
    <glyph glyph-name="uni2002" unicode="&#x2002;" horiz-adv-x="911" 
 />
    <glyph glyph-name="uni2003" unicode="&#x2003;" horiz-adv-x="1823" 
 />
    <glyph glyph-name="uni2004" unicode="&#x2004;" horiz-adv-x="607" 
 />
    <glyph glyph-name="uni2005" unicode="&#x2005;" horiz-adv-x="455" 
 />
    <glyph glyph-name="uni2006" unicode="&#x2006;" horiz-adv-x="303" 
 />
    <glyph glyph-name="uni2007" unicode="&#x2007;" horiz-adv-x="303" 
 />
    <glyph glyph-name="uni2008" unicode="&#x2008;" horiz-adv-x="227" 
 />
    <glyph glyph-name="uni2009" unicode="&#x2009;" horiz-adv-x="364" 
 />
    <glyph glyph-name="uni200A" unicode="&#x200a;" horiz-adv-x="101" 
 />
    <glyph glyph-name="uni2010" unicode="&#x2010;" horiz-adv-x="614" 
d="M61 428v135h492v-135h-492z" />
    <glyph glyph-name="uni2011" unicode="&#x2011;" horiz-adv-x="614" 
d="M61 428v135h492v-135h-492z" />
    <glyph glyph-name="figuredash" unicode="&#x2012;" horiz-adv-x="614" 
d="M61 428v135h492v-135h-492z" />
    <glyph glyph-name="endash" unicode="&#x2013;" horiz-adv-x="1214" 
d="M61 428v135h1092v-135h-1092z" />
    <glyph glyph-name="emdash" unicode="&#x2014;" horiz-adv-x="1705" 
d="M61 428v135h1584v-135h-1584z" />
    <glyph glyph-name="quoteleft" unicode="&#x2018;" horiz-adv-x="471" 
d="M98 1079q0 90 46 172.5t118 134.5l78 -61q-50 -33 -88.5 -87t-44.5 -103q1 0 12 2t17 2q41 0 69.5 -30.5t28.5 -74.5q0 -46 -31.5 -78t-77.5 -32q-54 0 -90.5 41.5t-36.5 113.5z" />
    <glyph glyph-name="quoteright" unicode="&#x2019;" horiz-adv-x="471" 
d="M117 985q50 33 88.5 87.5t44.5 103.5q-10 -5 -29 -5q-41 0 -69.5 30.5t-28.5 74.5q0 45 31.5 77.5t76.5 32.5q55 0 92 -41.5t37 -113.5q0 -91 -46 -173.5t-119 -135.5z" />
    <glyph glyph-name="quotesinglbase" unicode="&#x201a;" horiz-adv-x="471" 
d="M117 -197q51 33 89 87t44 104q-8 -4 -29 -4q-41 0 -69.5 30t-28.5 74q0 45 31.5 78t76.5 33q55 0 92 -42.5t37 -113.5q0 -91 -46 -173.5t-119 -135.5z" />
    <glyph glyph-name="quotedblleft" unicode="&#x201c;" horiz-adv-x="798" 
d="M111 1079q0 91 46 173.5t119 133.5l76 -61q-50 -32 -87.5 -86.5t-43.5 -103.5l11 2q10 2 16 2q43 0 71.5 -30.5t28.5 -74.5q0 -46 -32 -78t-78 -32q-54 0 -90.5 41.5t-36.5 113.5zM438 1079q0 91 46.5 173.5t119.5 133.5l76 -61q-50 -32 -87.5 -86.5t-43.5 -103.5
q1 0 11 2t15 2q43 0 72 -30.5t29 -74.5q0 -46 -32.5 -78t-78.5 -32q-54 0 -90.5 41.5t-36.5 113.5z" />
    <glyph glyph-name="quotedblright" unicode="&#x201d;" horiz-adv-x="798" 
d="M117 985q50 33 88.5 87.5t44.5 103.5q-10 -5 -29 -5q-41 0 -69.5 30.5t-28.5 74.5q0 45 31.5 77.5t76.5 32.5q55 0 92 -41.5t37 -113.5q0 -91 -46 -173.5t-119 -135.5zM446 985q50 33 88 87.5t44 103.5q-5 -5 -27 -5q-43 0 -71.5 30.5t-28.5 74.5q0 45 32.5 77.5
t77.5 32.5q54 0 90.5 -41.5t36.5 -113.5q0 -91 -46.5 -173.5t-119.5 -135.5z" />
    <glyph glyph-name="quotedblbase" unicode="&#x201e;" horiz-adv-x="798" 
d="M117 -197q51 33 89 87t44 104q-8 -4 -29 -4q-41 0 -69.5 30t-28.5 74q0 45 31.5 78t76.5 33q55 0 92 -42.5t37 -113.5q0 -91 -46 -173.5t-119 -135.5zM446 -197q50 33 88 87t44 104q-4 -4 -27 -4q-43 0 -71.5 30t-28.5 74q0 45 32.5 78t77.5 33q53 0 90 -42.5t37 -113.5
q0 -91 -46.5 -173.5t-119.5 -135.5z" />
    <glyph glyph-name="bullet" unicode="&#x2022;" horiz-adv-x="733" 
d="M147 496q0 91 65.5 156t156.5 65t156 -65t65 -156q0 -90 -65 -155t-156 -65t-156.5 65.5t-65.5 154.5z" />
    <glyph glyph-name="ellipsis" unicode="&#x2026;" horiz-adv-x="1415" 
d="M123 92q0 46 33.5 79.5t79.5 33.5t79 -33.5t33 -79.5q0 -45 -33.5 -78.5t-78.5 -33.5q-46 0 -79.5 34t-33.5 78zM594 92q0 46 33.5 79.5t79.5 33.5t79 -33.5t33 -79.5q0 -45 -33.5 -78.5t-78.5 -33.5t-79 34t-34 78zM1067 92q0 46 33.5 79.5t79.5 33.5q45 0 77.5 -33.5
t32.5 -79.5q0 -45 -32.5 -78.5t-77.5 -33.5q-46 0 -79.5 34t-33.5 78z" />
    <glyph glyph-name="uni202F" unicode="&#x202f;" horiz-adv-x="364" 
 />
    <glyph glyph-name="guilsinglleft" unicode="&#x2039;" horiz-adv-x="604" 
d="M61 498l328 362h154l-328 -362l328 -369h-154z" />
    <glyph glyph-name="guilsinglright" unicode="&#x203a;" horiz-adv-x="604" 
d="M61 129l328 369l-328 362h154l328 -362l-328 -369h-154z" />
    <glyph glyph-name="uni205F" unicode="&#x205f;" horiz-adv-x="455" 
 />
    <glyph glyph-name="Euro" unicode="&#x20ac;" horiz-adv-x="1423" 
d="M63 485v107h91q-4 58 -4 90t4 94h-91v109h113q61 230 246 367t430 137q329 0 518 -271l-141 -80q-60 90 -161 144.5t-216 54.5q-174 0 -307 -95t-189 -257h619v-109h-643q-6 -46 -6 -94q0 -46 6 -90h643v-107h-619q54 -163 188 -260.5t308 -97.5q114 0 215.5 55
t161.5 144l143 -78q-199 -273 -520 -273q-248 0 -433 138.5t-245 371.5h-111z" />
    <glyph glyph-name="trademark" unicode="&#x2122;" horiz-adv-x="929" 
d="M35 1313v53h311v-53h-127v-398h-57v398h-127zM420 915v451h88l131 -328l131 328h88v-451h-57v373l-154 -373h-16l-154 373v-373h-57z" />
    <glyph glyph-name="uniE000" unicode="&#xe000;" horiz-adv-x="993" 
d="M0 0v993h993v-993h-993z" />
  </font>
</defs></svg>
